[api-updater (non-obsolete-error-filter)] 10/13/2021 10:47:37 AM : Starting C:/Program Files/Unity/Hub/Editor/2020.3.18f1/Editor/Data/Tools/ScriptUpdater/APIUpdater.NonObsoleteApiUpdaterDetector.exe
[api-updater (non-obsolete-error-filter)] 
----------------------------------
jit/startup time      : 270.1198ms
moved types parse time: 74ms
candidates parse time : 1ms
C# parse time         : 302ms
candidates check time : 37ms
console write time    : 0ms

